{
    "name": "GameBehaviours",
    "references": [
        "GUID:396e9bb57feb5f246bd73e53274c06b0",
        "GUID:0d8beb7f090555447a6cf5ce9e54dbb4"
    ],
    "includePlatforms": [],
    "excludePlatforms": [],
    "allowUnsafeCode": false,
    "overrideReferences": false,
    "precompiledReferences": [],
    "autoReferenced": true,
    "defineConstraints": [],
    "versionDefines": [],
    "noEngineReferences": false
}